{
  "$schema": "http://schema.management.azure.com/schemas/2015-01-01/deploymentTemplate.json#",
  "contentVersion": "1.0.0.0",
  "parameters": {
    "imageTemplateName": {
      "type": "string"
    },
    "api-version": {
      "type": "string"
    },
    "svclocation": {
      "type": "string"
    }
  },
  "variables": {},
  "resources": [
    {
      "name": "[parameters('imageTemplateName')]",
      "type": "Microsoft.VirtualMachineImages/imageTemplates",
      "apiVersion": "[parameters('api-version')]",
      "location": "[parameters('svclocation')]",
      "dependsOn": [],
      "tags": {
        "imagebuilderTemplate": "multiapps",
        "userIdentity": "enabled"
      },
      "identity": {
        "type": "UserAssigned",
        "userAssignedIdentities": {
          "<imgBuilderId>": {}
        }
      },
      "properties": {
        "buildTimeoutInMinutes": 30,
        "vmProfile": {
          "vmSize": "<vmSize>",
          "osDiskSizeGB": 127
        },
        "source": {
          "type": "PlatformImage",
          "publisher": "<publisher>",
          "offer": "<offer>",
          "sku": "<sku>",
          "version": "latest"
        },
        <customise>
        "distribute": [
          {
            "type": "ManagedImage",
            "imageId": "/subscriptions/<subscriptionID>/resourceGroups/<rgName>/providers/Microsoft.Compute/images/<imageName>",
            "location": "<region>",
            "runOutputName": "<runOutputName>",
            "artifactTags": {
              "source": "azVmImageBuilder",
              "baseosimg": "<sku>"
            }
          }
        ]
      }
    }
  ]
}
